Idx,Time in: 1/{time},Time (us),Time (100ns),Relation,chips (100ns),2835,945,Analog 5
1,111111,9,90,"3,17460317460317",,"9,52380952380952",,
2,35714,28,280,"9,87654320987654",,"29,6296296296296",,
3,21277,47,470,"16,5784832451499",,"49,7354497354497",d,
4,15152,66,660,"23,2804232804233",,"69,8412698412698",d,
5,11765,85,850,"29,9823633156966",d,"89,9470899470899",d,
6,9615,104,1040,"36,68430335097",,"110,05291005291",d,
7,8130,123,1230,"43,3862433862434",,"130,15873015873",t,d
8,7042,142,"1420,1","50,0881834215168",d,"150,275132275132",d,d
9,6211,161,1610,"56,7901234567901",,"170,37037037037",d,d
10,5556,180,"1799,9","63,4920634920635",d,"190,465608465609",d,t
11,5051,198,"1979,8","69,8412698412698",,"209,502645502645",d,t
12,4608,217,"2170,1","76,5432098765432",,"229,640211640212",d,d
13,4237,236,"2360,2","83,2451499118166",d,"249,756613756614",d,d
14,3922,255,"2549,7","89,9470899470899",d,"269,809523809524",,d
15,3650,274,"2739,7","96,6490299823633",d,"289,915343915344",,t
16,3413,293,2930,"103,350970017637",d,"310,05291005291",,t
17,3205,312,"3120,1","110,05291005291",d,"330,169312169312",,d
18,3021,331,"3310,2","116,754850088183",d,"350,285714285714",,d
19,2857,350,"3500,2","123,456790123457",d,"370,391534391534",,d
20,2710,369,3690,"130,15873015873",d,"390,47619047619",,d
21,2584,387,3870,"136,507936507937",d,"409,52380952381",,d
22,2463,406,"4060,1","143,20987654321",d,"429,640211640212",,t
23,2353,425,"4249,9","149,911816578483",d,"449,724867724868",,d
24,2252,444,"4440,5","156,613756613757",d,"469,89417989418",,d
25,2160,463,"4629,6","163,31569664903",d,"489,904761904762",,t
26,2075,482,"4819,3","170,017636684303",d,"509,978835978836",,d
27,1996,501,5010,"176,719576719577",d,"530,15873015873",,d
28,1923,520,"5200,2","183,42151675485",d,"550,285714285714",,d
29,1855,539,"5390,8","190,123456790123",d,"570,455026455026",,d
30,1792,558,"5580,4","196,825396825397",d,"590,518518518519",,d
31,1733,577,"5770,3","203,52733686067",d,"610,613756613757",,d
32,1681,595,"5948,8","209,876543209877",d,"629,502645502646",,d
33,1629,614,"6138,7","216,57848324515",d,"649,597883597884",,d
34,1580,633,"6329,1","223,280423280423",d,"669,746031746032",,d
35,1534,652,"6518,9","229,982363315697",d,"689,830687830688",,d
36,1490,671,"6711,4","236,68430335097",d,"710,201058201058",,d
37,1449,690,"6901,3","243,386243386243",d,"730,296296296296",,t
,,709,7090,"250,088183421517",,,,
,,728,7280,"256,79012345679",,,,
,,747,7470,"263,492063492063",,,,
,,784,7840,"276,543209876543",,,,
,,803,8030,"283,245149911817",,,,
,,822,8220,"289,94708994709",,,,
,,841,8410,"296,649029982363",,,,
,,860,8600,"303,350970017637",,,,
,,879,8790,"310,05291005291",,,,
,,898,8980,"316,754850088183",,,,
,,917,9170,"323,456790123457",,,,
,,936,9360,"330,15873015873",,,,
,,955,9550,"336,860670194004",,,,
,,974,9740,"343,562610229277",,,,
,,992,9920,"349,911816578483",,,,
,,1011,10110,"356,613756613757",,,,
